%YAML 1.1
%TAG !u! tag:unity3d.com,2011:
--- !u!1 &2316908912943083897
GameObject:
  m_ObjectHideFlags: 0
  m_CorrespondingSourceObject: {fileID: 0}
  m_PrefabInstance: {fileID: 0}
  m_PrefabAsset: {fileID: 0}
  serializedVersion: 6
  m_Component:
  - component: {fileID: 4309459057381199087}
  - component: {fileID: 4320417687398197633}
  - component: {fileID: 5411603594917605876}
  m_Layer: 0
  m_Name: Layer1
  m_TagString: Untagged
  m_Icon: {fileID: 0}
  m_NavMeshLayer: 0
  m_StaticEditorFlags: 0
  m_IsActive: 1
--- !u!4 &4309459057381199087
Transform:
  m_ObjectHideFlags: 0
  m_CorrespondingSourceObject: {fileID: 0}
  m_PrefabInstance: {fileID: 0}
  m_PrefabAsset: {fileID: 0}
  m_GameObject: {fileID: 2316908912943083897}
  m_LocalRotation: {x: -0, y: -0, z: -0, w: 1}
  m_LocalPosition: {x: 0, y: 0, z: 0}
  m_LocalScale: {x: 1, y: 1, z: 1}
  m_Children: []
  m_Father: {fileID: 5131286645162649194}
  m_RootOrder: 0
  m_LocalEulerAnglesHint: {x: 0, y: 0, z: 0}
--- !u!1839735485 &4320417687398197633
Tilemap:
  m_ObjectHideFlags: 0
  m_CorrespondingSourceObject: {fileID: 0}
  m_PrefabInstance: {fileID: 0}
  m_PrefabAsset: {fileID: 0}
  m_GameObject: {fileID: 2316908912943083897}
  m_Enabled: 1
  m_Tiles:
  - first: {x: 1, y: -5, z: 0}
    second:
      serializedVersion: 2
      m_TileIndex: 120
      m_TileSpriteIndex: 120
      m_TileMatrixIndex: 0
      m_TileColorIndex: 0
      m_TileObjectToInstantiateIndex: 65535
      dummyAlignment: 0
      m_AllTileFlags: 1073741825
  - first: {x: 2, y: -5, z: 0}
    second:
      serializedVersion: 2
      m_TileIndex: 121
      m_TileSpriteIndex: 121
      m_TileMatrixIndex: 0
      m_TileColorIndex: 0
      m_TileObjectToInstantiateIndex: 65535
      dummyAlignment: 0
      m_AllTileFlags: 1073741825
  - first: {x: 3, y: -5, z: 0}
    second:
      serializedVersion: 2
      m_TileIndex: 122
      m_TileSpriteIndex: 122
      m_TileMatrixIndex: 0
      m_TileColorIndex: 0
      m_TileObjectToInstantiateIndex: 65535
      dummyAlignment: 0
      m_AllTileFlags: 1073741825
  - first: {x: 50, y: -5, z: 0}
    second:
      serializedVersion: 2
      m_TileIndex: 123
      m_TileSpriteIndex: 123
      m_TileMatrixIndex: 0
      m_TileColorIndex: 0
      m_TileObjectToInstantiateIndex: 65535
      dummyAlignment: 0
      m_AllTileFlags: 1073741825
  - first: {x: 51, y: -5, z: 0}
    second:
      serializedVersion: 2
      m_TileIndex: 124
      m_TileSpriteIndex: 124
      m_TileMatrixIndex: 0
      m_TileColorIndex: 0
      m_TileObjectToInstantiateIndex: 65535
      dummyAlignment: 0
      m_AllTileFlags: 1073741825
  - first: {x: 52, y: -5, z: 0}
    second:
      serializedVersion: 2
      m_TileIndex: 125
      m_TileSpriteIndex: 125
      m_TileMatrixIndex: 0
      m_TileColorIndex: 0
      m_TileObjectToInstantiateIndex: 65535
      dummyAlignment: 0
      m_AllTileFlags: 1073741825
  - first: {x: 58, y: -5, z: 0}
    second:
      serializedVersion: 2
      m_TileIndex: 126
      m_TileSpriteIndex: 126
      m_TileMatrixIndex: 0
      m_TileColorIndex: 0
      m_TileObjectToInstantiateIndex: 65535
      dummyAlignment: 0
      m_AllTileFlags: 1073741825
  - first: {x: 59, y: -5, z: 0}
    second:
      serializedVersion: 2
      m_TileIndex: 127
      m_TileSpriteIndex: 127
      m_TileMatrixIndex: 0
      m_TileColorIndex: 0
      m_TileObjectToInstantiateIndex: 65535
      dummyAlignment: 0
      m_AllTileFlags: 1073741825
  - first: {x: 60, y: -5, z: 0}
    second:
      serializedVersion: 2
      m_TileIndex: 128
      m_TileSpriteIndex: 128
      m_TileMatrixIndex: 0
      m_TileColorIndex: 0
      m_TileObjectToInstantiateIndex: 65535
      dummyAlignment: 0
      m_AllTileFlags: 1073741825
  - first: {x: 65, y: -5, z: 0}
    second:
      serializedVersion: 2
      m_TileIndex: 129
      m_TileSpriteIndex: 129
      m_TileMatrixIndex: 0
      m_TileColorIndex: 0
      m_TileObjectToInstantiateIndex: 65535
      dummyAlignment: 0
      m_AllTileFlags: 1073741825
  - first: {x: 66, y: -5, z: 0}
    second:
      serializedVersion: 2
      m_TileIndex: 130
      m_TileSpriteIndex: 130
      m_TileMatrixIndex: 0
      m_TileColorIndex: 0
      m_TileObjectToInstantiateIndex: 65535
      dummyAlignment: 0
      m_AllTileFlags: 1073741825
  - first: {x: 67, y: -5, z: 0}
    second:
      serializedVersion: 2
      m_TileIndex: 131
      m_TileSpriteIndex: 131
      m_TileMatrixIndex: 0
      m_TileColorIndex: 0
      m_TileObjectToInstantiateIndex: 65535
      dummyAlignment: 0
      m_AllTileFlags: 1073741825
  - first: {x: 1, y: -4, z: 0}
    second:
      serializedVersion: 2
      m_TileIndex: 108
      m_TileSpriteIndex: 108
      m_TileMatrixIndex: 0
      m_TileColorIndex: 0
      m_TileObjectToInstantiateIndex: 65535
      dummyAlignment: 0
      m_AllTileFlags: 1073741825
  - first: {x: 2, y: -4, z: 0}
    second:
      serializedVersion: 2
      m_TileIndex: 109
      m_TileSpriteIndex: 109
      m_TileMatrixIndex: 0
      m_TileColorIndex: 0
      m_TileObjectToInstantiateIndex: 65535
      dummyAlignment: 0
      m_AllTileFlags: 1073741825
  - first: {x: 3, y: -4, z: 0}
    second:
      serializedVersion: 2
      m_TileIndex: 110
      m_TileSpriteIndex: 110
      m_TileMatrixIndex: 0
      m_TileColorIndex: 0
      m_TileObjectToInstantiateIndex: 65535
      dummyAlignment: 0
      m_AllTileFlags: 1073741825
  - first: {x: 50, y: -4, z: 0}
    second:
      serializedVersion: 2
      m_TileIndex: 111
      m_TileSpriteIndex: 111
      m_TileMatrixIndex: 0
      m_TileColorIndex: 0
      m_TileObjectToInstantiateIndex: 65535
      dummyAlignment: 0
      m_AllTileFlags: 1073741825
  - first: {x: 51, y: -4, z: 0}
    second:
      serializedVersion: 2
      m_TileIndex: 112
      m_TileSpriteIndex: 112
      m_TileMatrixIndex: 0
      m_TileColorIndex: 0
      m_TileObjectToInstantiateIndex: 65535
      dummyAlignment: 0
      m_AllTileFlags: 1073741825
  - first: {x: 52, y: -4, z: 0}
    second:
      serializedVersion: 2
      m_TileIndex: 113
      m_TileSpriteIndex: 113
      m_TileMatrixIndex: 0
      m_TileColorIndex: 0
      m_TileObjectToInstantiateIndex: 65535
      dummyAlignment: 0
      m_AllTileFlags: 1073741825
  - first: {x: 58, y: -4, z: 0}
    second:
      serializedVersion: 2
      m_TileIndex: 114
      m_TileSpriteIndex: 114
      m_TileMatrixIndex: 0
      m_TileColorIndex: 0
      m_TileObjectToInstantiateIndex: 65535
      dummyAlignment: 0
      m_AllTileFlags: 1073741825
  - first: {x: 59, y: -4, z: 0}
    second:
      serializedVersion: 2
      m_TileIndex: 115
      m_TileSpriteIndex: 115
      m_TileMatrixIndex: 0
      m_TileColorIndex: 0
      m_TileObjectToInstantiateIndex: 65535
      dummyAlignment: 0
      m_AllTileFlags: 1073741825
  - first: {x: 60, y: -4, z: 0}
    second:
      serializedVersion: 2
      m_TileIndex: 116
      m_TileSpriteIndex: 116
      m_TileMatrixIndex: 0
      m_TileColorIndex: 0
      m_TileObjectToInstantiateIndex: 65535
      dummyAlignment: 0
      m_AllTileFlags: 1073741825
  - first: {x: 65, y: -4, z: 0}
    second:
      serializedVersion: 2
      m_TileIndex: 117
      m_TileSpriteIndex: 117
      m_TileMatrixIndex: 0
      m_TileColorIndex: 0
      m_TileObjectToInstantiateIndex: 65535
      dummyAlignment: 0
      m_AllTileFlags: 1073741825
  - first: {x: 66, y: -4, z: 0}
    second:
      serializedVersion: 2
      m_TileIndex: 118
      m_TileSpriteIndex: 118
      m_TileMatrixIndex: 0
      m_TileColorIndex: 0
      m_TileObjectToInstantiateIndex: 65535
      dummyAlignment: 0
      m_AllTileFlags: 1073741825
  - first: {x: 67, y: -4, z: 0}
    second:
      serializedVersion: 2
      m_TileIndex: 119
      m_TileSpriteIndex: 119
      m_TileMatrixIndex: 0
      m_TileColorIndex: 0
      m_TileObjectToInstantiateIndex: 65535
      dummyAlignment: 0
      m_AllTileFlags: 1073741825
  - first: {x: -1, y: -3, z: 0}
    second:
      serializedVersion: 2
      m_TileIndex: 80
      m_TileSpriteIndex: 80
      m_TileMatrixIndex: 0
      m_TileColorIndex: 0
      m_TileObjectToInstantiateIndex: 65535
      dummyAlignment: 0
      m_AllTileFlags: 1073741825
  - first: {x: 0, y: -3, z: 0}
    second:
      serializedVersion: 2
      m_TileIndex: 81
      m_TileSpriteIndex: 81
      m_TileMatrixIndex: 0
      m_TileColorIndex: 0
      m_TileObjectToInstantiateIndex: 65535
      dummyAlignment: 0
      m_AllTileFlags: 1073741825
  - first: {x: 1, y: -3, z: 0}
    second:
      serializedVersion: 2
      m_TileIndex: 82
      m_TileSpriteIndex: 82
      m_TileMatrixIndex: 0
      m_TileColorIndex: 0
      m_TileObjectToInstantiateIndex: 65535
      dummyAlignment: 0
      m_AllTileFlags: 1073741825
  - first: {x: 2, y: -3, z: 0}
    second:
      serializedVersion: 2
      m_TileIndex: 83
      m_TileSpriteIndex: 83
      m_TileMatrixIndex: 0
      m_TileColorIndex: 0
      m_TileObjectToInstantiateIndex: 65535
      dummyAlignment: 0
      m_AllTileFlags: 1073741825
  - first: {x: 3, y: -3, z: 0}
    second:
      serializedVersion: 2
      m_TileIndex: 84
      m_TileSpriteIndex: 84
      m_TileMatrixIndex: 0
      m_TileColorIndex: 0
      m_TileObjectToInstantiateIndex: 65535
      dummyAlignment: 0
      m_AllTileFlags: 1073741825
  - first: {x: 4, y: -3, z: 0}
    second:
      serializedVersion: 2
      m_TileIndex: 85
      m_TileSpriteIndex: 85
      m_TileMatrixIndex: 0
      m_TileColorIndex: 0
      m_TileObjectToInstantiateIndex: 65535
      dummyAlignment: 0
      m_AllTileFlags: 1073741825
  - first: {x: 5, y: -3, z: 0}
    second:
      serializedVersion: 2
      m_TileIndex: 86
      m_TileSpriteIndex: 86
      m_TileMatrixIndex: 0
      m_TileColorIndex: 0
      m_TileObjectToInstantiateIndex: 65535
      dummyAlignment: 0
      m_AllTileFlags: 1073741825
  - first: {x: 48, y: -3, z: 0}
    second:
      serializedVersion: 2
      m_TileIndex: 87
      m_TileSpriteIndex: 87
      m_TileMatrixIndex: 0
      m_TileColorIndex: 0
      m_TileObjectToInstantiateIndex: 65535
      dummyAlignment: 0
      m_AllTileFlags: 1073741825
  - first: {x: 49, y: -3, z: 0}
    second:
      serializedVersion: 2
      m_TileIndex: 88
      m_TileSpriteIndex: 88
      m_TileMatrixIndex: 0
      m_TileColorIndex: 0
      m_TileObjectToInstantiateIndex: 65535
      dummyAlignment: 0
      m_AllTileFlags: 1073741825
  - first: {x: 50, y: -3, z: 0}
    second:
      serializedVersion: 2
      m_TileIndex: 89
      m_TileSpriteIndex: 89
      m_TileMatrixIndex: 0
      m_TileColorIndex: 0
      m_TileObjectToInstantiateIndex: 65535
      dummyAlignment: 0
      m_AllTileFlags: 1073741825
  - first: {x: 51, y: -3, z: 0}
    second:
      serializedVersion: 2
      m_TileIndex: 90
      m_TileSpriteIndex: 90
      m_TileMatrixIndex: 0
      m_TileColorIndex: 0
      m_TileObjectToInstantiateIndex: 65535
      dummyAlignment: 0
      m_AllTileFlags: 1073741825
  - first: {x: 52, y: -3, z: 0}
    second:
      serializedVersion: 2
      m_TileIndex: 91
      m_TileSpriteIndex: 91
      m_TileMatrixIndex: 0
      m_TileColorIndex: 0
      m_TileObjectToInstantiateIndex: 65535
      dummyAlignment: 0
      m_AllTileFlags: 1073741825
  - first: {x: 53, y: -3, z: 0}
    second:
      serializedVersion: 2
      m_TileIndex: 92
      m_TileSpriteIndex: 92
      m_TileMatrixIndex: 0
      m_TileColorIndex: 0
      m_TileObjectToInstantiateIndex: 65535
      dummyAlignment: 0
      m_AllTileFlags: 1073741825
  - first: {x: 54, y: -3, z: 0}
    second:
      serializedVersion: 2
      m_TileIndex: 93
      m_TileSpriteIndex: 93
      m_TileMatrixIndex: 0
      m_TileColorIndex: 0
      m_TileObjectToInstantiateIndex: 65535
      dummyAlignment: 0
      m_AllTileFlags: 1073741825
  - first: {x: 56, y: -3, z: 0}
    second:
      serializedVersion: 2
      m_TileIndex: 94
      m_TileSpriteIndex: 94
      m_TileMatrixIndex: 0
      m_TileColorIndex: 0
      m_TileObjectToInstantiateIndex: 65535
      dummyAlignment: 0
      m_AllTileFlags: 1073741825
  - first: {x: 57, y: -3, z: 0}
    second:
      serializedVersion: 2
      m_TileIndex: 95
      m_TileSpriteIndex: 95
      m_TileMatrixIndex: 0
      m_TileColorIndex: 0
      m_TileObjectToInstantiateIndex: 65535
      dummyAlignment: 0
      m_AllTileFlags: 1073741825
  - first: {x: 58, y: -3, z: 0}
    second:
      serializedVersion: 2
      m_TileIndex: 96
      m_TileSpriteIndex: 96
      m_TileMatrixIndex: 0
      m_TileColorIndex: 0
      m_TileObjectToInstantiateIndex: 65535
      dummyAlignment: 0
      m_AllTileFlags: 1073741825
  - first: {x: 59, y: -3, z: 0}
    second:
      serializedVersion: 2
      m_TileIndex: 97
      m_TileSpriteIndex: 97
      m_TileMatrixIndex: 0
      m_TileColorIndex: 0
      m_TileObjectToInstantiateIndex: 65535
      dummyAlignment: 0
      m_AllTileFlags: 1073741825
  - first: {x: 60, y: -3, z: 0}
    second:
      serializedVersion: 2
      m_TileIndex: 98
      m_TileSpriteIndex: 98
      m_TileMatrixIndex: 0
      m_TileColorIndex: 0
      m_TileObjectToInstantiateIndex: 65535
      dummyAlignment: 0
      m_AllTileFlags: 1073741825
  - first: {x: 61, y: -3, z: 0}
    second:
      serializedVersion: 2
      m_TileIndex: 99
      m_TileSpriteIndex: 99
      m_TileMatrixIndex: 0
      m_TileColorIndex: 0
      m_TileObjectToInstantiateIndex: 65535
      dummyAlignment: 0
      m_AllTileFlags: 1073741825
  - first: {x: 62, y: -3, z: 0}
    second:
      serializedVersion: 2
      m_TileIndex: 100
      m_TileSpriteIndex: 100
      m_TileMatrixIndex: 0
      m_TileColorIndex: 0
      m_TileObjectToInstantiateIndex: 65535
      dummyAlignment: 0
      m_AllTileFlags: 1073741825
  - first: {x: 63, y: -3, z: 0}
    second:
      serializedVersion: 2
      m_TileIndex: 101
      m_TileSpriteIndex: 101
      m_TileMatrixIndex: 0
      m_TileColorIndex: 0
      m_TileObjectToInstantiateIndex: 65535
      dummyAlignment: 0
      m_AllTileFlags: 1073741825
  - first: {x: 64, y: -3, z: 0}
    second:
      serializedVersion: 2
      m_TileIndex: 102
      m_TileSpriteIndex: 102
      m_TileMatrixIndex: 0
      m_TileColorIndex: 0
      m_TileObjectToInstantiateIndex: 65535
      dummyAlignment: 0
      m_AllTileFlags: 1073741825
  - first: {x: 65, y: -3, z: 0}
    second:
      serializedVersion: 2
      m_TileIndex: 103
      m_TileSpriteIndex: 103
      m_TileMatrixIndex: 0
      m_TileColorIndex: 0
      m_TileObjectToInstantiateIndex: 65535
      dummyAlignment: 0
      m_AllTileFlags: 1073741825
  - first: {x: 66, y: -3, z: 0}
    second:
      serializedVersion: 2
      m_TileIndex: 104
      m_TileSpriteIndex: 104
      m_TileMatrixIndex: 0
      m_TileColorIndex: 0
      m_TileObjectToInstantiateIndex: 65535
      dummyAlignment: 0
      m_AllTileFlags: 1073741825
  - first: {x: 67, y: -3, z: 0}
    second:
      serializedVersion: 2
      m_TileIndex: 105
      m_TileSpriteIndex: 105
      m_TileMatrixIndex: 0
      m_TileColorIndex: 0
      m_TileObjectToInstantiateIndex: 65535
      dummyAlignment: 0
      m_AllTileFlags: 1073741825
  - first: {x: 68, y: -3, z: 0}
    second:
      serializedVersion: 2
      m_TileIndex: 106
      m_TileSpriteIndex: 106
      m_TileMatrixIndex: 0
      m_TileColorIndex: 0
      m_TileObjectToInstantiateIndex: 65535
      dummyAlignment: 0
      m_AllTileFlags: 1073741825
  - first: {x: 69, y: -3, z: 0}
    second:
      serializedVersion: 2
      m_TileIndex: 107
      m_TileSpriteIndex: 107
      m_TileMatrixIndex: 0
      m_TileColorIndex: 0
      m_TileObjectToInstantiateIndex: 65535
      dummyAlignment: 0
      m_AllTileFlags: 1073741825
  - first: {x: -1, y: -2, z: 0}
    second:
      serializedVersion: 2
      m_TileIndex: 52
      m_TileSpriteIndex: 52
      m_TileMatrixIndex: 0
      m_TileColorIndex: 0
      m_TileObjectToInstantiateIndex: 65535
      dummyAlignment: 0
      m_AllTileFlags: 1073741825
  - first: {x: 0, y: -2, z: 0}
    second:
      serializedVersion: 2
      m_TileIndex: 53
      m_TileSpriteIndex: 53
      m_TileMatrixIndex: 0
      m_TileColorIndex: 0
      m_TileObjectToInstantiateIndex: 65535
      dummyAlignment: 0
      m_AllTileFlags: 1073741825
  - first: {x: 1, y: -2, z: 0}
    second:
      serializedVersion: 2
      m_TileIndex: 54
      m_TileSpriteIndex: 54
      m_TileMatrixIndex: 0
      m_TileColorIndex: 0
      m_TileObjectToInstantiateIndex: 65535
      dummyAlignment: 0
      m_AllTileFlags: 1073741825
  - first: {x: 2, y: -2, z: 0}
    second:
      serializedVersion: 2
      m_TileIndex: 55
      m_TileSpriteIndex: 55
      m_TileMatrixIndex: 0
      m_TileColorIndex: 0
      m_TileObjectToInstantiateIndex: 65535
      dummyAlignment: 0
      m_AllTileFlags: 1073741825
  - first: {x: 3, y: -2, z: 0}
    second:
      serializedVersion: 2
      m_TileIndex: 56
      m_TileSpriteIndex: 56
      m_TileMatrixIndex: 0
      m_TileColorIndex: 0
      m_TileObjectToInstantiateIndex: 65535
      dummyAlignment: 0
      m_AllTileFlags: 1073741825
  - first: {x: 4, y: -2, z: 0}
    second:
      serializedVersion: 2
      m_TileIndex: 57
      m_TileSpriteIndex: 57
      m_TileMatrixIndex: 0
      m_TileColorIndex: 0
      m_TileObjectToInstantiateIndex: 65535
      dummyAlignment: 0
      m_AllTileFlags: 1073741825
  - first: {x: 5, y: -2, z: 0}
    second:
      serializedVersion: 2
      m_TileIndex: 58
      m_TileSpriteIndex: 58
      m_TileMatrixIndex: 0
      m_TileColorIndex: 0
      m_TileObjectToInstantiateIndex: 65535
      dummyAlignment: 0
      m_AllTileFlags: 1073741825
  - first: {x: 48, y: -2, z: 0}
    second:
      serializedVersion: 2
      m_TileIndex: 59
      m_TileSpriteIndex: 59
      m_TileMatrixIndex: 0
      m_TileColorIndex: 0
      m_TileObjectToInstantiateIndex: 65535
      dummyAlignment: 0
      m_AllTileFlags: 1073741825
  - first: {x: 49, y: -2, z: 0}
    second:
      serializedVersion: 2
      m_TileIndex: 60
      m_TileSpriteIndex: 60
      m_TileMatrixIndex: 0
      m_TileColorIndex: 0
      m_TileObjectToInstantiateIndex: 65535
      dummyAlignment: 0
      m_AllTileFlags: 1073741825
  - first: {x: 50, y: -2, z: 0}
    second:
      serializedVersion: 2
      m_TileIndex: 61
      m_TileSpriteIndex: 61
      m_TileMatrixIndex: 0
      m_TileColorIndex: 0
      m_TileObjectToInstantiateIndex: 65535
      dummyAlignment: 0
      m_AllTileFlags: 1073741825
  - first: {x: 51, y: -2, z: 0}
    second:
      serializedVersion: 2
      m_TileIndex: 62
      m_TileSpriteIndex: 62
      m_TileMatrixIndex: 0
      m_TileColorIndex: 0
      m_TileObjectToInstantiateIndex: 65535
      dummyAlignment: 0
      m_AllTileFlags: 1073741825
  - first: {x: 52, y: -2, z: 0}
    second:
      serializedVersion: 2
      m_TileIndex: 63
      m_TileSpriteIndex: 63
      m_TileMatrixIndex: 0
      m_TileColorIndex: 0
      m_TileObjectToInstantiateIndex: 65535
      dummyAlignment: 0
      m_AllTileFlags: 1073741825
  - first: {x: 53, y: -2, z: 0}
    second:
      serializedVersion: 2
      m_TileIndex: 64
      m_TileSpriteIndex: 64
      m_TileMatrixIndex: 0
      m_TileColorIndex: 0
      m_TileObjectToInstantiateIndex: 65535
      dummyAlignment: 0
      m_AllTileFlags: 1073741825
  - first: {x: 54, y: -2, z: 0}
    second:
      serializedVersion: 2
      m_TileIndex: 65
      m_TileSpriteIndex: 65
      m_TileMatrixIndex: 0
      m_TileColorIndex: 0
      m_TileObjectToInstantiateIndex: 65535
      dummyAlignment: 0
      m_AllTileFlags: 1073741825
  - first: {x: 56, y: -2, z: 0}
    second:
      serializedVersion: 2
      m_TileIndex: 66
      m_TileSpriteIndex: 66
      m_TileMatrixIndex: 0
      m_TileColorIndex: 0
      m_TileObjectToInstantiateIndex: 65535
      dummyAlignment: 0
      m_AllTileFlags: 1073741825
  - first: {x: 57, y: -2, z: 0}
    second:
      serializedVersion: 2
      m_TileIndex: 67
      m_TileSpriteIndex: 67
      m_TileMatrixIndex: 0
      m_TileColorIndex: 0
      m_TileObjectToInstantiateIndex: 65535
      dummyAlignment: 0
      m_AllTileFlags: 1073741825
  - first: {x: 58, y: -2, z: 0}
    second:
      serializedVersion: 2
      m_TileIndex: 68
      m_TileSpriteIndex: 68
      m_TileMatrixIndex: 0
      m_TileColorIndex: 0
      m_TileObjectToInstantiateIndex: 65535
      dummyAlignment: 0
      m_AllTileFlags: 1073741825
  - first: {x: 59, y: -2, z: 0}
    second:
      serializedVersion: 2
      m_TileIndex: 69
      m_TileSpriteIndex: 69
      m_TileMatrixIndex: 0
      m_TileColorIndex: 0
      m_TileObjectToInstantiateIndex: 65535
      dummyAlignment: 0
      m_AllTileFlags: 1073741825
  - first: {x: 60, y: -2, z: 0}
    second:
      serializedVersion: 2
      m_TileIndex: 70
      m_TileSpriteIndex: 70
      m_TileMatrixIndex: 0
      m_TileColorIndex: 0
      m_TileObjectToInstantiateIndex: 65535
      dummyAlignment: 0
      m_AllTileFlags: 1073741825
  - first: {x: 61, y: -2, z: 0}
    second:
      serializedVersion: 2
      m_TileIndex: 71
      m_TileSpriteIndex: 71
      m_TileMatrixIndex: 0
      m_TileColorIndex: 0
      m_TileObjectToInstantiateIndex: 65535
      dummyAlignment: 0
      m_AllTileFlags: 1073741825
  - first: {x: 62, y: -2, z: 0}
    second:
      serializedVersion: 2
      m_TileIndex: 72
      m_TileSpriteIndex: 72
      m_TileMatrixIndex: 0
      m_TileColorIndex: 0
      m_TileObjectToInstantiateIndex: 65535
      dummyAlignment: 0
      m_AllTileFlags: 1073741825
  - first: {x: 63, y: -2, z: 0}
    second:
      serializedVersion: 2
      m_TileIndex: 73
      m_TileSpriteIndex: 73
      m_TileMatrixIndex: 0
      m_TileColorIndex: 0
      m_TileObjectToInstantiateIndex: 65535
      dummyAlignment: 0
      m_AllTileFlags: 1073741825
  - first: {x: 64, y: -2, z: 0}
    second:
      serializedVersion: 2
      m_TileIndex: 74
      m_TileSpriteIndex: 74
      m_TileMatrixIndex: 0
      m_TileColorIndex: 0
      m_TileObjectToInstantiateIndex: 65535
      dummyAlignment: 0
      m_AllTileFlags: 1073741825
  - first: {x: 65, y: -2, z: 0}
    second:
      serializedVersion: 2
      m_TileIndex: 75
      m_TileSpriteIndex: 75
      m_TileMatrixIndex: 0
      m_TileColorIndex: 0
      m_TileObjectToInstantiateIndex: 65535
      dummyAlignment: 0
      m_AllTileFlags: 1073741825
  - first: {x: 66, y: -2, z: 0}
    second:
      serializedVersion: 2
      m_TileIndex: 76
      m_TileSpriteIndex: 76
      m_TileMatrixIndex: 0
      m_TileColorIndex: 0
      m_TileObjectToInstantiateIndex: 65535
      dummyAlignment: 0
      m_AllTileFlags: 1073741825
  - first: {x: 67, y: -2, z: 0}
    second:
      serializedVersion: 2
      m_TileIndex: 77
      m_TileSpriteIndex: 77
      m_TileMatrixIndex: 0
      m_TileColorIndex: 0
      m_TileObjectToInstantiateIndex: 65535
      dummyAlignment: 0
      m_AllTileFlags: 1073741825
  - first: {x: 68, y: -2, z: 0}
    second:
      serializedVersion: 2
      m_TileIndex: 78
      m_TileSpriteIndex: 78
      m_TileMatrixIndex: 0
      m_TileColorIndex: 0
      m_TileObjectToInstantiateIndex: 65535
      dummyAlignment: 0
      m_AllTileFlags: 1073741825
  - first: {x: 69, y: -2, z: 0}
    second:
      serializedVersion: 2
      m_TileIndex: 79
      m_TileSpriteIndex: 79
      m_TileMatrixIndex: 0
      m_TileColorIndex: 0
      m_TileObjectToInstantiateIndex: 65535
      dummyAlignment: 0
      m_AllTileFlags: 1073741825
  - first: {x: -1, y: -1, z: 0}
    second:
      serializedVersion: 2
      m_TileIndex: 24
      m_TileSpriteIndex: 24
      m_TileMatrixIndex: 0
      m_TileColorIndex: 0
      m_TileObjectToInstantiateIndex: 65535
      dummyAlignment: 0
      m_AllTileFlags: 1073741825
  - first: {x: 0, y: -1, z: 0}
    second:
      serializedVersion: 2
      m_TileIndex: 25
      m_TileSpriteIndex: 25
      m_TileMatrixIndex: 0
      m_TileColorIndex: 0
      m_TileObjectToInstantiateIndex: 65535
      dummyAlignment: 0
      m_AllTileFlags: 1073741825
  - first: {x: 1, y: -1, z: 0}
    second:
      serializedVersion: 2
      m_TileIndex: 26
      m_TileSpriteIndex: 26
      m_TileMatrixIndex: 0
      m_TileColorIndex: 0
      m_TileObjectToInstantiateIndex: 65535
      dummyAlignment: 0
      m_AllTileFlags: 1073741825
  - first: {x: 2, y: -1, z: 0}
    second:
      serializedVersion: 2
      m_TileIndex: 27
      m_TileSpriteIndex: 27
      m_TileMatrixIndex: 0
      m_TileColorIndex: 0
      m_TileObjectToInstantiateIndex: 65535
      dummyAlignment: 0
      m_AllTileFlags: 1073741825
  - first: {x: 3, y: -1, z: 0}
    second:
      serializedVersion: 2
      m_TileIndex: 28
      m_TileSpriteIndex: 28
      m_TileMatrixIndex: 0
      m_TileColorIndex: 0
      m_TileObjectToInstantiateIndex: 65535
      dummyAlignment: 0
      m_AllTileFlags: 1073741825
  - first: {x: 4, y: -1, z: 0}
    second:
      serializedVersion: 2
      m_TileIndex: 29
      m_TileSpriteIndex: 29
      m_TileMatrixIndex: 0
      m_TileColorIndex: 0
      m_TileObjectToInstantiateIndex: 65535
      dummyAlignment: 0
      m_AllTileFlags: 1073741825
  - first: {x: 5, y: -1, z: 0}
    second:
      serializedVersion: 2
      m_TileIndex: 30
      m_TileSpriteIndex: 30
      m_TileMatrixIndex: 0
      m_TileColorIndex: 0
      m_TileObjectToInstantiateIndex: 65535
      dummyAlignment: 0
      m_AllTileFlags: 1073741825
  - first: {x: 48, y: -1, z: 0}
    second:
      serializedVersion: 2
      m_TileIndex: 31
      m_TileSpriteIndex: 31
      m_TileMatrixIndex: 0
      m_TileColorIndex: 0
      m_TileObjectToInstantiateIndex: 65535
      dummyAlignment: 0
      m_AllTileFlags: 1073741825
  - first: {x: 49, y: -1, z: 0}
    second:
      serializedVersion: 2
      m_TileIndex: 32
      m_TileSpriteIndex: 32
      m_TileMatrixIndex: 0
      m_TileColorIndex: 0
      m_TileObjectToInstantiateIndex: 65535
      dummyAlignment: 0
      m_AllTileFlags: 1073741825
  - first: {x: 50, y: -1, z: 0}
    second:
      serializedVersion: 2
      m_TileIndex: 33
      m_TileSpriteIndex: 33
      m_TileMatrixIndex: 0
      m_TileColorIndex: 0
      m_TileObjectToInstantiateIndex: 65535
      dummyAlignment: 0
      m_AllTileFlags: 1073741825
  - first: {x: 51, y: -1, z: 0}
    second:
      serializedVersion: 2
      m_TileIndex: 34
      m_TileSpriteIndex: 34
      m_TileMatrixIndex: 0
      m_TileColorIndex: 0
      m_TileObjectToInstantiateIndex: 65535
      dummyAlignment: 0
      m_AllTileFlags: 1073741825
  - first: {x: 52, y: -1, z: 0}
    second:
      serializedVersion: 2
      m_TileIndex: 35
      m_TileSpriteIndex: 35
      m_TileMatrixIndex: 0
      m_TileColorIndex: 0
      m_TileObjectToInstantiateIndex: 65535
      dummyAlignment: 0
      m_AllTileFlags: 1073741825
  - first: {x: 53, y: -1, z: 0}
    second:
      serializedVersion: 2
      m_TileIndex: 36
      m_TileSpriteIndex: 36
      m_TileMatrixIndex: 0
      m_TileColorIndex: 0
      m_TileObjectToInstantiateIndex: 65535
      dummyAlignment: 0
      m_AllTileFlags: 1073741825
  - first: {x: 54, y: -1, z: 0}
    second:
      serializedVersion: 2
      m_TileIndex: 37
      m_TileSpriteIndex: 37
      m_TileMatrixIndex: 0
      m_TileColorIndex: 0
      m_TileObjectToInstantiateIndex: 65535
      dummyAlignment: 0
      m_AllTileFlags: 1073741825
  - first: {x: 56, y: -1, z: 0}
    second:
      serializedVersion: 2
      m_TileIndex: 38
      m_TileSpriteIndex: 38
      m_TileMatrixIndex: 0
      m_TileColorIndex: 0
      m_TileObjectToInstantiateIndex: 65535
      dummyAlignment: 0
      m_AllTileFlags: 1073741825
  - first: {x: 57, y: -1, z: 0}
    second:
      serializedVersion: 2
      m_TileIndex: 39
      m_TileSpriteIndex: 39
      m_TileMatrixIndex: 0
      m_TileColorIndex: 0
      m_TileObjectToInstantiateIndex: 65535
      dummyAlignment: 0
      m_AllTileFlags: 1073741825
  - first: {x: 58, y: -1, z: 0}
    second:
      serializedVersion: 2
      m_TileIndex: 40
      m_TileSpriteIndex: 40
      m_TileMatrixIndex: 0
      m_TileColorIndex: 0
      m_TileObjectToInstantiateIndex: 65535
      dummyAlignment: 0
      m_AllTileFlags: 1073741825
  - first: {x: 59, y: -1, z: 0}
    second:
      serializedVersion: 2
      m_TileIndex: 41
      m_TileSpriteIndex: 41
      m_TileMatrixIndex: 0
      m_TileColorIndex: 0
      m_TileObjectToInstantiateIndex: 65535
      dummyAlignment: 0
      m_AllTileFlags: 1073741825
  - first: {x: 60, y: -1, z: 0}
    second:
      serializedVersion: 2
      m_TileIndex: 42
      m_TileSpriteIndex: 42
      m_TileMatrixIndex: 0
      m_TileColorIndex: 0
      m_TileObjectToInstantiateIndex: 65535
      dummyAlignment: 0
      m_AllTileFlags: 1073741825
  - first: {x: 61, y: -1, z: 0}
    second:
      serializedVersion: 2
      m_TileIndex: 43
      m_TileSpriteIndex: 43
      m_TileMatrixIndex: 0
      m_TileColorIndex: 0
      m_TileObjectToInstantiateIndex: 65535
      dummyAlignment: 0
      m_AllTileFlags: 1073741825
  - first: {x: 62, y: -1, z: 0}
    second:
      serializedVersion: 2
      m_TileIndex: 44
      m_TileSpriteIndex: 44
      m_TileMatrixIndex: 0
      m_TileColorIndex: 0
      m_TileObjectToInstantiateIndex: 65535
      dummyAlignment: 0
      m_AllTileFlags: 1073741825
  - first: {x: 63, y: -1, z: 0}
    second:
      serializedVersion: 2
      m_TileIndex: 45
      m_TileSpriteIndex: 45
      m_TileMatrixIndex: 0
      m_TileColorIndex: 0
      m_TileObjectToInstantiateIndex: 65535
      dummyAlignment: 0
      m_AllTileFlags: 1073741825
  - first: {x: 64, y: -1, z: 0}
    second:
      serializedVersion: 2
      m_TileIndex: 46
      m_TileSpriteIndex: 46
      m_TileMatrixIndex: 0
      m_TileColorIndex: 0
      m_TileObjectToInstantiateIndex: 65535
      dummyAlignment: 0
      m_AllTileFlags: 1073741825
  - first: {x: 65, y: -1, z: 0}
    second:
      serializedVersion: 2
      m_TileIndex: 47
      m_TileSpriteIndex: 47
      m_TileMatrixIndex: 0
      m_TileColorIndex: 0
      m_TileObjectToInstantiateIndex: 65535
      dummyAlignment: 0
      m_AllTileFlags: 1073741825
  - first: {x: 66, y: -1, z: 0}
    second:
      serializedVersion: 2
      m_TileIndex: 48
      m_TileSpriteIndex: 48
      m_TileMatrixIndex: 0
      m_TileColorIndex: 0
      m_TileObjectToInstantiateIndex: 65535
      dummyAlignment: 0
      m_AllTileFlags: 1073741825
  - first: {x: 67, y: -1, z: 0}
    second:
      serializedVersion: 2
      m_TileIndex: 49
      m_TileSpriteIndex: 49
      m_TileMatrixIndex: 0
      m_TileColorIndex: 0
      m_TileObjectToInstantiateIndex: 65535
      dummyAlignment: 0
      m_AllTileFlags: 1073741825
  - first: {x: 68, y: -1, z: 0}
    second:
      serializedVersion: 2
      m_TileIndex: 50
      m_TileSpriteIndex: 50
      m_TileMatrixIndex: 0
      m_TileColorIndex: 0
      m_TileObjectToInstantiateIndex: 65535
      dummyAlignment: 0
      m_AllTileFlags: 1073741825
  - first: {x: 69, y: -1, z: 0}
    second:
      serializedVersion: 2
      m_TileIndex: 51
      m_TileSpriteIndex: 51
      m_TileMatrixIndex: 0
      m_TileColorIndex: 0
      m_TileObjectToInstantiateIndex: 65535
      dummyAlignment: 0
      m_AllTileFlags: 1073741825
  - first: {x: 1, y: 0, z: 0}
    second:
      serializedVersion: 2
      m_TileIndex: 12
      m_TileSpriteIndex: 12
      m_TileMatrixIndex: 0
      m_TileColorIndex: 0
      m_TileObjectToInstantiateIndex: 65535
      dummyAlignment: 0
      m_AllTileFlags: 1073741825
  - first: {x: 2, y: 0, z: 0}
    second:
      serializedVersion: 2
      m_TileIndex: 13
      m_TileSpriteIndex: 13
      m_TileMatrixIndex: 0
      m_TileColorIndex: 0
      m_TileObjectToInstantiateIndex: 65535
      dummyAlignment: 0
      m_AllTileFlags: 1073741825
  - first: {x: 3, y: 0, z: 0}
    second:
      serializedVersion: 2
      m_TileIndex: 14
      m_TileSpriteIndex: 14
      m_TileMatrixIndex: 0
      m_TileColorIndex: 0
      m_TileObjectToInstantiateIndex: 65535
      dummyAlignment: 0
      m_AllTileFlags: 1073741825
  - first: {x: 50, y: 0, z: 0}
    second:
      serializedVersion: 2
      m_TileIndex: 15
      m_TileSpriteIndex: 15
      m_TileMatrixIndex: 0
      m_TileColorIndex: 0
      m_TileObjectToInstantiateIndex: 65535
      dummyAlignment: 0
      m_AllTileFlags: 1073741825
  - first: {x: 51, y: 0, z: 0}
    second:
      serializedVersion: 2
      m_TileIndex: 16
      m_TileSpriteIndex: 16
      m_TileMatrixIndex: 0
      m_TileColorIndex: 0
      m_TileObjectToInstantiateIndex: 65535
      dummyAlignment: 0
      m_AllTileFlags: 1073741825
  - first: {x: 52, y: 0, z: 0}
    second:
      serializedVersion: 2
      m_TileIndex: 17
      m_TileSpriteIndex: 17
      m_TileMatrixIndex: 0
      m_TileColorIndex: 0
      m_TileObjectToInstantiateIndex: 65535
      dummyAlignment: 0
      m_AllTileFlags: 1073741825
  - first: {x: 58, y: 0, z: 0}
    second:
      serializedVersion: 2
      m_TileIndex: 18
      m_TileSpriteIndex: 18
      m_TileMatrixIndex: 0
      m_TileColorIndex: 0
      m_TileObjectToInstantiateIndex: 65535
      dummyAlignment: 0
      m_AllTileFlags: 1073741825
  - first: {x: 59, y: 0, z: 0}
    second:
      serializedVersion: 2
      m_TileIndex: 19
      m_TileSpriteIndex: 19
      m_TileMatrixIndex: 0
      m_TileColorIndex: 0
      m_TileObjectToInstantiateIndex: 65535
      dummyAlignment: 0
      m_AllTileFlags: 1073741825
  - first: {x: 60, y: 0, z: 0}
    second:
      serializedVersion: 2
      m_TileIndex: 20
      m_TileSpriteIndex: 20
      m_TileMatrixIndex: 0
      m_TileColorIndex: 0
      m_TileObjectToInstantiateIndex: 65535
      dummyAlignment: 0
      m_AllTileFlags: 1073741825
  - first: {x: 65, y: 0, z: 0}
    second:
      serializedVersion: 2
      m_TileIndex: 21
      m_TileSpriteIndex: 21
      m_TileMatrixIndex: 0
      m_TileColorIndex: 0
      m_TileObjectToInstantiateIndex: 65535
      dummyAlignment: 0
      m_AllTileFlags: 1073741825
  - first: {x: 66, y: 0, z: 0}
    second:
      serializedVersion: 2
      m_TileIndex: 22
      m_TileSpriteIndex: 22
      m_TileMatrixIndex: 0
      m_TileColorIndex: 0
      m_TileObjectToInstantiateIndex: 65535
      dummyAlignment: 0
      m_AllTileFlags: 1073741825
  - first: {x: 67, y: 0, z: 0}
    second:
      serializedVersion: 2
      m_TileIndex: 23
      m_TileSpriteIndex: 23
      m_TileMatrixIndex: 0
      m_TileColorIndex: 0
      m_TileObjectToInstantiateIndex: 65535
      dummyAlignment: 0
      m_AllTileFlags: 1073741825
  - first: {x: 1, y: 1, z: 0}
    second:
      serializedVersion: 2
      m_TileIndex: 0
      m_TileSpriteIndex: 0
      m_TileMatrixIndex: 0
      m_TileColorIndex: 0
      m_TileObjectToInstantiateIndex: 65535
      dummyAlignment: 0
      m_AllTileFlags: 1073741825
  - first: {x: 2, y: 1, z: 0}
    second:
      serializedVersion: 2
      m_TileIndex: 1
      m_TileSpriteIndex: 1
      m_TileMatrixIndex: 0
      m_TileColorIndex: 0
      m_TileObjectToInstantiateIndex: 65535
      dummyAlignment: 0
      m_AllTileFlags: 1073741825
  - first: {x: 3, y: 1, z: 0}
    second:
      serializedVersion: 2
      m_TileIndex: 2
      m_TileSpriteIndex: 2
      m_TileMatrixIndex: 0
      m_TileColorIndex: 0
      m_TileObjectToInstantiateIndex: 65535
      dummyAlignment: 0
      m_AllTileFlags: 1073741825
  - first: {x: 50, y: 1, z: 0}
    second:
      serializedVersion: 2
      m_TileIndex: 3
      m_TileSpriteIndex: 3
      m_TileMatrixIndex: 0
      m_TileColorIndex: 0
      m_TileObjectToInstantiateIndex: 65535
      dummyAlignment: 0
      m_AllTileFlags: 1073741825
  - first: {x: 51, y: 1, z: 0}
    second:
      serializedVersion: 2
      m_TileIndex: 4
      m_TileSpriteIndex: 4
      m_TileMatrixIndex: 0
      m_TileColorIndex: 0
      m_TileObjectToInstantiateIndex: 65535
      dummyAlignment: 0
      m_AllTileFlags: 1073741825
  - first: {x: 52, y: 1, z: 0}
    second:
      serializedVersion: 2
      m_TileIndex: 5
      m_TileSpriteIndex: 5
      m_TileMatrixIndex: 0
      m_TileColorIndex: 0
      m_TileObjectToInstantiateIndex: 65535
      dummyAlignment: 0
      m_AllTileFlags: 1073741825
  - first: {x: 58, y: 1, z: 0}
    second:
      serializedVersion: 2
      m_TileIndex: 6
      m_TileSpriteIndex: 6
      m_TileMatrixIndex: 0
      m_TileColorIndex: 0
      m_TileObjectToInstantiateIndex: 65535
      dummyAlignment: 0
      m_AllTileFlags: 1073741825
  - first: {x: 59, y: 1, z: 0}
    second:
      serializedVersion: 2
      m_TileIndex: 7
      m_TileSpriteIndex: 7
      m_TileMatrixIndex: 0
      m_TileColorIndex: 0
      m_TileObjectToInstantiateIndex: 65535
      dummyAlignment: 0
      m_AllTileFlags: 1073741825
  - first: {x: 60, y: 1, z: 0}
    second:
      serializedVersion: 2
      m_TileIndex: 8
      m_TileSpriteIndex: 8
      m_TileMatrixIndex: 0
      m_TileColorIndex: 0
      m_TileObjectToInstantiateIndex: 65535
      dummyAlignment: 0
      m_AllTileFlags: 1073741825
  - first: {x: 65, y: 1, z: 0}
    second:
      serializedVersion: 2
      m_TileIndex: 9
      m_TileSpriteIndex: 9
      m_TileMatrixIndex: 0
      m_TileColorIndex: 0
      m_TileObjectToInstantiateIndex: 65535
      dummyAlignment: 0
      m_AllTileFlags: 1073741825
  - first: {x: 66, y: 1, z: 0}
    second:
      serializedVersion: 2
      m_TileIndex: 10
      m_TileSpriteIndex: 10
      m_TileMatrixIndex: 0
      m_TileColorIndex: 0
      m_TileObjectToInstantiateIndex: 65535
      dummyAlignment: 0
      m_AllTileFlags: 1073741825
  - first: {x: 67, y: 1, z: 0}
    second:
      serializedVersion: 2
      m_TileIndex: 11
      m_TileSpriteIndex: 11
      m_TileMatrixIndex: 0
      m_TileColorIndex: 0
      m_TileObjectToInstantiateIndex: 65535
      dummyAlignment: 0
      m_AllTileFlags: 1073741825
  m_AnimatedTiles: {}
  m_TileAssetArray:
  - m_RefCount: 1
    m_Data: {fileID: 11400000, guid: 4a9259e55dcba0f42965c3c86f10515f, type: 2}
  - m_RefCount: 1
    m_Data: {fileID: 11400000, guid: 38be380d702571c45b28e9b2c8a1d53e, type: 2}
  - m_RefCount: 1
    m_Data: {fileID: 11400000, guid: e2fbe1d8d9a4f234fb7f869f3702154b, type: 2}
  - m_RefCount: 1
    m_Data: {fileID: 11400000, guid: cc5aa9b107a62f84f8ae502531a8afac, type: 2}
  - m_RefCount: 1
    m_Data: {fileID: 11400000, guid: 4841533d189ba90479c62fca1dff3610, type: 2}
  - m_RefCount: 1
    m_Data: {fileID: 11400000, guid: 1762323ca23752d4aa40a42239da7d85, type: 2}
  - m_RefCount: 1
    m_Data: {fileID: 11400000, guid: a46d0781026be064c82607c6cd4a5738, type: 2}
  - m_RefCount: 1
    m_Data: {fileID: 11400000, guid: 997cb69f925899347861d16c5278ec00, type: 2}
  - m_RefCount: 1
    m_Data: {fileID: 11400000, guid: b5aad57c967e99145b361ac30d1c77ae, type: 2}
  - m_RefCount: 1
    m_Data: {fileID: 11400000, guid: 546ccea6d8a75584db3daa344e668b9b, type: 2}
  - m_RefCount: 1
    m_Data: {fileID: 11400000, guid: e9693e547753392419d76adce0fb314a, type: 2}
  - m_RefCount: 1
    m_Data: {fileID: 11400000, guid: db6f3b9e1f309d64182727047d295ad8, type: 2}
  - m_RefCount: 1
    m_Data: {fileID: 11400000, guid: a9a25194a631a264b8a8a3f6dfff10f8, type: 2}
  - m_RefCount: 1
    m_Data: {fileID: 11400000, guid: 069b1b0307b345e4d9ef8537b6ff8780, type: 2}
  - m_RefCount: 1
    m_Data: {fileID: 11400000, guid: cb280e1b2ae9d2b408ae1fdcb6f7ea5b, type: 2}
  - m_RefCount: 1
    m_Data: {fileID: 11400000, guid: d96578a443920ef46a70c26b41d5803b, type: 2}
  - m_RefCount: 1
    m_Data: {fileID: 11400000, guid: d03d834a68fbb74489d152c06b0531de, type: 2}
  - m_RefCount: 1
    m_Data: {fileID: 11400000, guid: f94ea34582982f347a5283e789b33fb3, type: 2}
  - m_RefCount: 1
    m_Data: {fileID: 11400000, guid: 82ba755a03a88ce4d9aec87f09f6f931, type: 2}
  - m_RefCount: 1
    m_Data: {fileID: 11400000, guid: ad12fab0cd1ee214091bc4d87678b3d5, type: 2}
  - m_RefCount: 1
    m_Data: {fileID: 11400000, guid: 200a9403c70cc0143856adca93c91e79, type: 2}
  - m_RefCount: 1
    m_Data: {fileID: 11400000, guid: 848d939ab68b1984d8d97e0ea07fedbb, type: 2}
  - m_RefCount: 1
    m_Data: {fileID: 11400000, guid: a8b0fb094aa05e741a25e91cd111bc2d, type: 2}
  - m_RefCount: 1
    m_Data: {fileID: 11400000, guid: 4f7c4aaa2fc8fc9439c6a645bddd0d11, type: 2}
  - m_RefCount: 1
    m_Data: {fileID: 11400000, guid: 72084dddf649f5042ac1f413671cdf08, type: 2}
  - m_RefCount: 1
    m_Data: {fileID: 11400000, guid: 932e7dab652fbaf41b50a5d02234d27e, type: 2}
  - m_RefCount: 1
    m_Data: {fileID: 11400000, guid: 46251810a98b39e4aa9c8e15bfe662b0, type: 2}
  - m_RefCount: 1
    m_Data: {fileID: 11400000, guid: b0de1abdab488fd4cae314961b195573, type: 2}
  - m_RefCount: 1
    m_Data: {fileID: 11400000, guid: bc5feb4273a31f547879c40cc2affc10, type: 2}
  - m_RefCount: 1
    m_Data: {fileID: 11400000, guid: 2121c753a3c7d1b4eb6011abc3eaaae7, type: 2}
  - m_RefCount: 1
    m_Data: {fileID: 11400000, guid: e8e6e57e9e8fbfc45ac7fd98ec22758f, type: 2}
  - m_RefCount: 1
    m_Data: {fileID: 11400000, guid: 14433e0e071cf0946be2f92d9c091b46, type: 2}
  - m_RefCount: 1
    m_Data: {fileID: 11400000, guid: 0f6fa9409c25a634d9daef4757f7be9f, type: 2}
  - m_RefCount: 1
    m_Data: {fileID: 11400000, guid: d9fa2f7be6234904087a69c965e3d4bc, type: 2}
  - m_RefCount: 1
    m_Data: {fileID: 11400000, guid: 77f47ba30cf10464ab061f5841308730, type: 2}
  - m_RefCount: 1
    m_Data: {fileID: 11400000, guid: acc5737fe24b571469944c0b1cb9b5b5, type: 2}
  - m_RefCount: 1
    m_Data: {fileID: 11400000, guid: eaa22076d76b32147b33eaadbbc4581f, type: 2}
  - m_RefCount: 1
    m_Data: {fileID: 11400000, guid: 9d92531dda30ebc4ab8f5da22a244211, type: 2}
  - m_RefCount: 1
    m_Data: {fileID: 11400000, guid: 2d50521148bffe34b8dfe95083b9f7ab, type: 2}
  - m_RefCount: 1
    m_Data: {fileID: 11400000, guid: 84f8f5d3fbd2af94bb3bd5138d14f07c, type: 2}
  - m_RefCount: 1
    m_Data: {fileID: 11400000, guid: 84272c94b8fe8bd448bc241e559a3607, type: 2}
  - m_RefCount: 1
    m_Data: {fileID: 11400000, guid: 8a875b6d80436d44ba24bf59962785e8, type: 2}
  - m_RefCount: 1
    m_Data: {fileID: 11400000, guid: 90ce3be15c26fba4c8b24b31403f1251, type: 2}
  - m_RefCount: 1
    m_Data: {fileID: 11400000, guid: 1d66c93a162993846b6936eb8ad41867, type: 2}
  - m_RefCount: 1
    m_Data: {fileID: 11400000, guid: b708bce5c578b61458632e323401a1e5, type: 2}
  - m_RefCount: 1
    m_Data: {fileID: 11400000, guid: 14a1d0a45f89aba4dbbc374aa09f0d50, type: 2}
  - m_RefCount: 1
    m_Data: {fileID: 11400000, guid: 36c5ab42207c4fe45a269ed5358e4406, type: 2}
  - m_RefCount: 1
    m_Data: {fileID: 11400000, guid: d9a6ce1ceca17384d90a3a71688eea2e, type: 2}
  - m_RefCount: 1
    m_Data: {fileID: 11400000, guid: f132f5e03723f7342af5388ee783f1d6, type: 2}
  - m_RefCount: 1
    m_Data: {fileID: 11400000, guid: d8565470c37254b4a990d078fc352d89, type: 2}
  - m_RefCount: 1
    m_Data: {fileID: 11400000, guid: 0b92d4cdcc9f8804cb3af04916ea2742, type: 2}
  - m_RefCount: 1
    m_Data: {fileID: 11400000, guid: 5d0b55218bc12fd478bcdf3a32d9d2c6, type: 2}
  - m_RefCount: 1
    m_Data: {fileID: 11400000, guid: c35b88324c9f02d4b902f887390f65a5, type: 2}
  - m_RefCount: 1
    m_Data: {fileID: 11400000, guid: bf5d29bf7035d344e9b1a665fa340776, type: 2}
  - m_RefCount: 1
    m_Data: {fileID: 11400000, guid: 179faa5b97d1fc04b8f8a495f9d1ff52, type: 2}
  - m_RefCount: 1
    m_Data: {fileID: 11400000, guid: 5afd9c68403ea7c45a4966737dc7c9a7, type: 2}
  - m_RefCount: 1
    m_Data: {fileID: 11400000, guid: 6bbb24da5ac84c345aa76afc565bb201, type: 2}
  - m_RefCount: 1
    m_Data: {fileID: 11400000, guid: b74da4663bd7b9c4f8643de0962347e5, type: 2}
  - m_RefCount: 1
    m_Data: {fileID: 11400000, guid: c869cc2e0989e1c4592642a99ef5a66c, type: 2}
  - m_RefCount: 1
    m_Data: {fileID: 11400000, guid: c34dcdc1f1bfded48bc7e584a34d50a9, type: 2}
  - m_RefCount: 1
    m_Data: {fileID: 11400000, guid: d27e31053316151499a046cf4238bf23, type: 2}
  - m_RefCount: 1
    m_Data: {fileID: 11400000, guid: 965aeecab7d37c443a1dde8eb18f54ca, type: 2}
  - m_RefCount: 1
    m_Data: {fileID: 11400000, guid: 61150b0ec00de6e42a531ec012f18491, type: 2}
  - m_RefCount: 1
    m_Data: {fileID: 11400000, guid: 31ceaf1dd1fe7164e9a5bbc14970cd1e, type: 2}
  - m_RefCount: 1
    m_Data: {fileID: 11400000, guid: acc01f2bc40a85d4ca29e31eec118a39, type: 2}
  - m_RefCount: 1
    m_Data: {fileID: 11400000, guid: 296568f410b777346b158c113338452a, type: 2}
  - m_RefCount: 1
    m_Data: {fileID: 11400000, guid: 0fde7311ae604da498b218f97ac5d58c, type: 2}
  - m_RefCount: 1
    m_Data: {fileID: 11400000, guid: dfaa527c63abe6c418dd62c31a1f4dc9, type: 2}
  - m_RefCount: 1
    m_Data: {fileID: 11400000, guid: 6261968d95daf704489714f853dc9fe2, type: 2}
  - m_RefCount: 1
    m_Data: {fileID: 11400000, guid: 6ad1cee63838e3f4aaf2a79edd32a284, type: 2}
  - m_RefCount: 1
    m_Data: {fileID: 11400000, guid: 97a305c7749676d44b0a5ac27591564d, type: 2}
  - m_RefCount: 1
    m_Data: {fileID: 11400000, guid: b9c1c3642236ca74f8b3b1532926c801, type: 2}
  - m_RefCount: 1
    m_Data: {fileID: 11400000, guid: d1e6217c5c281ad43a6255028b348b2d, type: 2}
  - m_RefCount: 1
    m_Data: {fileID: 11400000, guid: 7aa988f0e8ce4784e8cc997a22910529, type: 2}
  - m_RefCount: 1
    m_Data: {fileID: 11400000, guid: af80da2373da77e4395ca5bd7e47f3c9, type: 2}
  - m_RefCount: 1
    m_Data: {fileID: 11400000, guid: c0a28e579a856594eb40692f9239544e, type: 2}
  - m_RefCount: 1
    m_Data: {fileID: 11400000, guid: 4a76a832cdfdd834596b785735a12dfe, type: 2}
  - m_RefCount: 1
    m_Data: {fileID: 11400000, guid: da87e60482a18ff498ed0ccf97d5a83b, type: 2}
  - m_RefCount: 1
    m_Data: {fileID: 11400000, guid: 46db82e3829660141b96973916b369cc, type: 2}
  - m_RefCount: 1
    m_Data: {fileID: 11400000, guid: b260a3fd920964a488af38650a90f5f1, type: 2}
  - m_RefCount: 1
    m_Data: {fileID: 11400000, guid: 662fab1858183e24cb5c523e88ecd67b, type: 2}
  - m_RefCount: 1
    m_Data: {fileID: 11400000, guid: 6d48ae4e245678e47b8e4f62f07e7251, type: 2}
  - m_RefCount: 1
    m_Data: {fileID: 11400000, guid: cf15308b1a03c2e409fb980fadc95df1, type: 2}
  - m_RefCount: 1
    m_Data: {fileID: 11400000, guid: 333781faddf57254788a9cacf01b1444, type: 2}
  - m_RefCount: 1
    m_Data: {fileID: 11400000, guid: 9cce02fd4513f1245b704b87bf315532, type: 2}
  - m_RefCount: 1
    m_Data: {fileID: 11400000, guid: edc9990d3396ee64abf9e6ee09092555, type: 2}
  - m_RefCount: 1
    m_Data: {fileID: 11400000, guid: 1ae2892c22a668444a9326e7dc1cb987, type: 2}
  - m_RefCount: 1
    m_Data: {fileID: 11400000, guid: 4b587d4ed82282149839f13fc7ad54a4, type: 2}
  - m_RefCount: 1
    m_Data: {fileID: 11400000, guid: 89a5a5344934e1244a15377baf9a6d44, type: 2}
  - m_RefCount: 1
    m_Data: {fileID: 11400000, guid: 1197687ce5aacb54a896670749cb6405, type: 2}
  - m_RefCount: 1
    m_Data: {fileID: 11400000, guid: ff25271f9f81c0047b85bbd6f0e245ca, type: 2}
  - m_RefCount: 1
    m_Data: {fileID: 11400000, guid: af290ea3af4329d42a6cf1ae76a4af1c, type: 2}
  - m_RefCount: 1
    m_Data: {fileID: 11400000, guid: cd097b8fe215af74293f3005b2df28c2, type: 2}
  - m_RefCount: 1
    m_Data: {fileID: 11400000, guid: 5ed67cfd359dcf846a690b61b696d370, type: 2}
  - m_RefCount: 1
    m_Data: {fileID: 11400000, guid: e995bb1627d75804fb0009e422da56b9, type: 2}
  - m_RefCount: 1
    m_Data: {fileID: 11400000, guid: 8fe51ea0a801dd74fb95ac789516a895, type: 2}
  - m_RefCount: 1
    m_Data: {fileID: 11400000, guid: a5b29f0c51fe9474e81b3c05c9459138, type: 2}
  - m_RefCount: 1
    m_Data: {fileID: 11400000, guid: 09f651851079eba418e7dda25cd7d623, type: 2}
  - m_RefCount: 1
    m_Data: {fileID: 11400000, guid: ae5c783e7d74e564488bd02bbe6dee46, type: 2}
  - m_RefCount: 1
    m_Data: {fileID: 11400000, guid: 39c934b92996e354eaa7ae9ed7e3f1a2, type: 2}
  - m_RefCount: 1
    m_Data: {fileID: 11400000, guid: 03c500cb26a6dd04fa87e7bb77203aa1, type: 2}
  - m_RefCount: 1
    m_Data: {fileID: 11400000, guid: 940a4c2f3888f764492f9fdc4ff8039e, type: 2}
  - m_RefCount: 1
    m_Data: {fileID: 11400000, guid: 5a309d55be1e3884abfcc7badd192c1d, type: 2}
  - m_RefCount: 1
    m_Data: {fileID: 11400000, guid: 456fb581540be614ca57a93285005af0, type: 2}
  - m_RefCount: 1
    m_Data: {fileID: 11400000, guid: 3d481ef088c37cd4b8598b9685aa75e1, type: 2}
  - m_RefCount: 1
    m_Data: {fileID: 11400000, guid: 7b4b80f84fcb16a4a89f7837077dafe0, type: 2}
  - m_RefCount: 1
    m_Data: {fileID: 11400000, guid: 7d23f021ef6707e4494f781e221c40c0, type: 2}
  - m_RefCount: 1
    m_Data: {fileID: 11400000, guid: e66ba7dbcd67bc54190cb9472a8b902a, type: 2}
  - m_RefCount: 1
    m_Data: {fileID: 11400000, guid: 98ccd08306ce3c44891e26e2e1c2c9cf, type: 2}
  - m_RefCount: 1
    m_Data: {fileID: 11400000, guid: cfd8528143a701443a1693642f0be8d1, type: 2}
  - m_RefCount: 1
    m_Data: {fileID: 11400000, guid: fad6375293d8c5243ad0f1679a926d0e, type: 2}
  - m_RefCount: 1
    m_Data: {fileID: 11400000, guid: fac9dda571a8569458e31cdb50e9b1fd, type: 2}
  - m_RefCount: 1
    m_Data: {fileID: 11400000, guid: fe276776f4da1d24a851c9c1aae9df07, type: 2}
  - m_RefCount: 1
    m_Data: {fileID: 11400000, guid: 1fe4040990fb361438316d1a08d1197d, type: 2}
  - m_RefCount: 1
    m_Data: {fileID: 11400000, guid: 83a1ee22ce3bf5f4083dd83901e9518d, type: 2}
  - m_RefCount: 1
    m_Data: {fileID: 11400000, guid: ce059bf712c470145be5d16108e5d0a7, type: 2}
  - m_RefCount: 1
    m_Data: {fileID: 11400000, guid: cf3ecbb255e4f0e4faec403721a430a3, type: 2}
  - m_RefCount: 1
    m_Data: {fileID: 11400000, guid: 36f0ba333719cb74488e80051c527245, type: 2}
  - m_RefCount: 1
    m_Data: {fileID: 11400000, guid: 43ffe8c719b78724a9377c9314d7b54c, type: 2}
  - m_RefCount: 1
    m_Data: {fileID: 11400000, guid: 433cde6fed57c3e498a5c0d3d7858626, type: 2}
  - m_RefCount: 1
    m_Data: {fileID: 11400000, guid: 5d48080994b520044b8cf7a6f5f1d282, type: 2}
  - m_RefCount: 1
    m_Data: {fileID: 11400000, guid: c248d8d7b73a31242977ea58744ff2fb, type: 2}
  - m_RefCount: 1
    m_Data: {fileID: 11400000, guid: b35923e34dd4dfb4eac4668d3bb5b204, type: 2}
  - m_RefCount: 1
    m_Data: {fileID: 11400000, guid: 572debfefd67aa24f9f97e85d2c89287, type: 2}
  - m_RefCount: 1
    m_Data: {fileID: 11400000, guid: 82cac9fa3b4335d49a59f154125ab8cd, type: 2}
  - m_RefCount: 1
    m_Data: {fileID: 11400000, guid: 2021973587b46ce488d221010b6e9029, type: 2}
  - m_RefCount: 1
    m_Data: {fileID: 11400000, guid: 532186b4f5603f343a034d8ae68063fa, type: 2}
  - m_RefCount: 1
    m_Data: {fileID: 11400000, guid: 4427bdb49e11a314ebe6295a47489c8b, type: 2}
  - m_RefCount: 1
    m_Data: {fileID: 11400000, guid: a05e014bd451191418eede226bdc71f4, type: 2}
  - m_RefCount: 1
    m_Data: {fileID: 11400000, guid: 8c9f01b616fca874c8cc3721577794b8, type: 2}
  - m_RefCount: 1
    m_Data: {fileID: 11400000, guid: f773f4be0836dce4c8a3c74ad905e34d, type: 2}
  - m_RefCount: 1
    m_Data: {fileID: 11400000, guid: 783b0103b3bad97408b8063f16164dac, type: 2}
  m_TileSpriteArray:
  - m_RefCount: 1
    m_Data: {fileID: 133131771354162645, guid: 4c675d33277bc9f4caf4f8bec3f5e92a, type: 3}
  - m_RefCount: 1
    m_Data: {fileID: -5975640129559537494, guid: 4c675d33277bc9f4caf4f8bec3f5e92a, type: 3}
  - m_RefCount: 1
    m_Data: {fileID: -649118021796752119, guid: 4c675d33277bc9f4caf4f8bec3f5e92a, type: 3}
  - m_RefCount: 1
    m_Data: {fileID: -8197846408215670511, guid: 4c675d33277bc9f4caf4f8bec3f5e92a, type: 3}
  - m_RefCount: 1
    m_Data: {fileID: 3398508512041939498, guid: 4c675d33277bc9f4caf4f8bec3f5e92a, type: 3}
  - m_RefCount: 1
    m_Data: {fileID: 9020576333770401163, guid: 4c675d33277bc9f4caf4f8bec3f5e92a, type: 3}
  - m_RefCount: 1
    m_Data: {fileID: -2851209543723730635, guid: 4c675d33277bc9f4caf4f8bec3f5e92a, type: 3}
  - m_RefCount: 1
    m_Data: {fileID: -4951119732430999837, guid: 4c675d33277bc9f4caf4f8bec3f5e92a, type: 3}
  - m_RefCount: 1
    m_Data: {fileID: 5437531648148591270, guid: 4c675d33277bc9f4caf4f8bec3f5e92a, type: 3}
  - m_RefCount: 1
    m_Data: {fileID: 3931214823943412383, guid: 4c675d33277bc9f4caf4f8bec3f5e92a, type: 3}
  - m_RefCount: 1
    m_Data: {fileID: 4815462660937667535, guid: 4c675d33277bc9f4caf4f8bec3f5e92a, type: 3}
  - m_RefCount: 1
    m_Data: {fileID: -8639779747134729445, guid: 4c675d33277bc9f4caf4f8bec3f5e92a, type: 3}
  - m_RefCount: 1
    m_Data: {fileID: 491935103662938134, guid: 4c675d33277bc9f4caf4f8bec3f5e92a, type: 3}
  - m_RefCount: 1
    m_Data: {fileID: -2960820281761238796, guid: 4c675d33277bc9f4caf4f8bec3f5e92a, type: 3}
  - m_RefCount: 1
    m_Data: {fileID: -4343694569974685511, guid: 4c675d33277bc9f4caf4f8bec3f5e92a, type: 3}
  - m_RefCount: 1
    m_Data: {fileID: 51859467436598950, guid: 4c675d33277bc9f4caf4f8bec3f5e92a, type: 3}
  - m_RefCount: 1
    m_Data: {fileID: -7447954262596818664, guid: 4c675d33277bc9f4caf4f8bec3f5e92a, type: 3}
  - m_RefCount: 1
    m_Data: {fileID: 1175951508849730690, guid: 4c675d33277bc9f4caf4f8bec3f5e92a, type: 3}
  - m_RefCount: 1
    m_Data: {fileID: -2583484993861291009, guid: 4c675d33277bc9f4caf4f8bec3f5e92a, type: 3}
  - m_RefCount: 1
    m_Data: {fileID: -1630278805189017422, guid: 4c675d33277bc9f4caf4f8bec3f5e92a, type: 3}
  - m_RefCount: 1
    m_Data: {fileID: 8456919948883970982, guid: 4c675d33277bc9f4caf4f8bec3f5e92a, type: 3}
  - m_RefCount: 1
    m_Data: {fileID: 2602965186444913, guid: 4c675d33277bc9f4caf4f8bec3f5e92a, type: 3}
  - m_RefCount: 1
    m_Data: {fileID: 6980246383322236709, guid: 4c675d33277bc9f4caf4f8bec3f5e92a, type: 3}
  - m_RefCount: 1
    m_Data: {fileID: 1219673292900635790, guid: 4c675d33277bc9f4caf4f8bec3f5e92a, type: 3}
  - m_RefCount: 1
    m_Data: {fileID: 9104267612139906396, guid: 4c675d33277bc9f4caf4f8bec3f5e92a, type: 3}
  - m_RefCount: 1
    m_Data: {fileID: -5822118344069556534, guid: 4c675d33277bc9f4caf4f8bec3f5e92a, type: 3}
  - m_RefCount: 1
    m_Data: {fileID: -7860256807295300762, guid: 4c675d33277bc9f4caf4f8bec3f5e92a, type: 3}
  - m_RefCount: 1
    m_Data: {fileID: 8488368656972181684, guid: 4c675d33277bc9f4caf4f8bec3f5e92a, type: 3}
  - m_RefCount: 1
    m_Data: {fileID: -5647010530187721161, guid: 4c675d33277bc9f4caf4f8bec3f5e92a, type: 3}
  - m_RefCount: 1
    m_Data: {fileID: 2533252087688703985, guid: 4c675d33277bc9f4caf4f8bec3f5e92a, type: 3}
  - m_RefCount: 1
    m_Data: {fileID: 2785691266394283819, guid: 4c675d33277bc9f4caf4f8bec3f5e92a, type: 3}
  - m_RefCount: 1
    m_Data: {fileID: -4720365937751022407, guid: 4c675d33277bc9f4caf4f8bec3f5e92a, type: 3}
  - m_RefCount: 1
    m_Data: {fileID: 4480110889149267947, guid: 4c675d33277bc9f4caf4f8bec3f5e92a, type: 3}
  - m_RefCount: 1
    m_Data: {fileID: -5908138531394437494, guid: 4c675d33277bc9f4caf4f8bec3f5e92a, type: 3}
  - m_RefCount: 1
    m_Data: {fileID: 5562698704088995575, guid: 4c675d33277bc9f4caf4f8bec3f5e92a, type: 3}
  - m_RefCount: 1
    m_Data: {fileID: 8168145401333732537, guid: 4c675d33277bc9f4caf4f8bec3f5e92a, type: 3}
  - m_RefCount: 1
    m_Data: {fileID: 1575440620491074527, guid: 4c675d33277bc9f4caf4f8bec3f5e92a, type: 3}
  - m_RefCount: 1
    m_Data: {fileID: -3027739181984630772, guid: 4c675d33277bc9f4caf4f8bec3f5e92a, type: 3}
  - m_RefCount: 1
    m_Data: {fileID: 3634387825115689951, guid: 4c675d33277bc9f4caf4f8bec3f5e92a, type: 3}
  - m_RefCount: 1
    m_Data: {fileID: 5211047924932216146, guid: 4c675d33277bc9f4caf4f8bec3f5e92a, type: 3}
  - m_RefCount: 1
    m_Data: {fileID: -2466424166057963050, guid: 4c675d33277bc9f4caf4f8bec3f5e92a, type: 3}
  - m_RefCount: 1
    m_Data: {fileID: -1078613131836691081, guid: 4c675d33277bc9f4caf4f8bec3f5e92a, type: 3}
  - m_RefCount: 1
    m_Data: {fileID: 7262463931498309827, guid: 4c675d33277bc9f4caf4f8bec3f5e92a, type: 3}
  - m_RefCount: 1
    m_Data: {fileID: -5595461109384053267, guid: 4c675d33277bc9f4caf4f8bec3f5e92a, type: 3}
  - m_RefCount: 1
    m_Data: {fileID: -4073579108698985453, guid: 4c675d33277bc9f4caf4f8bec3f5e92a, type: 3}
  - m_RefCount: 1
    m_Data: {fileID: -7085853742170841516, guid: 4c675d33277bc9f4caf4f8bec3f5e92a, type: 3}
  - m_RefCount: 1
    m_Data: {fileID: 6118491323561650799, guid: 4c675d33277bc9f4caf4f8bec3f5e92a, type: 3}
  - m_RefCount: 1
    m_Data: {fileID: 7815751763797961243, guid: 4c675d33277bc9f4caf4f8bec3f5e92a, type: 3}
  - m_RefCount: 1
    m_Data: {fileID: 724289372466907268, guid: 4c675d33277bc9f4caf4f8bec3f5e92a, type: 3}
  - m_RefCount: 1
    m_Data: {fileID: -4030312480886766664, guid: 4c675d33277bc9f4caf4f8bec3f5e92a, type: 3}
  - m_RefCount: 1
    m_Data: {fileID: 2121473023190465731, guid: 4c675d33277bc9f4caf4f8bec3f5e92a, type: 3}
  - m_RefCount: 1
    m_Data: {fileID: 4921259992335691281, guid: 4c675d33277bc9f4caf4f8bec3f5e92a, type: 3}
  - m_RefCount: 1
    m_Data: {fileID: 6007628402729634195, guid: 4c675d33277bc9f4caf4f8bec3f5e92a, type: 3}
  - m_RefCount: 1
    m_Data: {fileID: -1328891146758584971, guid: 4c675d33277bc9f4caf4f8bec3f5e92a, type: 3}
  - m_RefCount: 1
    m_Data: {fileID: 9171679186155375006, guid: 4c675d33277bc9f4caf4f8bec3f5e92a, type: 3}
  - m_RefCount: 1
    m_Data: {fileID: 5077000407756017228, guid: 4c675d33277bc9f4caf4f8bec3f5e92a, type: 3}
  - m_RefCount: 1
    m_Data: {fileID: -4584443277245770689, guid: 4c675d33277bc9f4caf4f8bec3f5e92a, type: 3}
  - m_RefCount: 1
    m_Data: {fileID: -8614388231076268807, guid: 4c675d33277bc9f4caf4f8bec3f5e92a, type: 3}
  - m_RefCount: 1
    m_Data: {fileID: -8773498045827209833, guid: 4c675d33277bc9f4caf4f8bec3f5e92a, type: 3}
  - m_RefCount: 1
    m_Data: {fileID: -1429142858427951009, guid: 4c675d33277bc9f4caf4f8bec3f5e92a, type: 3}
  - m_RefCount: 1
    m_Data: {fileID: -4125312874853168201, guid: 4c675d33277bc9f4caf4f8bec3f5e92a, type: 3}
  - m_RefCount: 1
    m_Data: {fileID: -6001444382767347264, guid: 4c675d33277bc9f4caf4f8bec3f5e92a, type: 3}
  - m_RefCount: 1
    m_Data: {fileID: -6118678919155243201, guid: 4c675d33277bc9f4caf4f8bec3f5e92a, type: 3}
  - m_RefCount: 1
    m_Data: {fileID: 8931482184513064659, guid: 4c675d33277bc9f4caf4f8bec3f5e92a, type: 3}
  - m_RefCount: 1
    m_Data: {fileID: 5125225964659615475, guid: 4c675d33277bc9f4caf4f8bec3f5e92a, type: 3}
  - m_RefCount: 1
    m_Data: {fileID: 7315137637238029513, guid: 4c675d33277bc9f4caf4f8bec3f5e92a, type: 3}
  - m_RefCount: 1
    m_Data: {fileID: -7414380271498493450, guid: 4c675d33277bc9f4caf4f8bec3f5e92a, type: 3}
  - m_RefCount: 1
    m_Data: {fileID: -425065301041633675, guid: 4c675d33277bc9f4caf4f8bec3f5e92a, type: 3}
  - m_RefCount: 1
    m_Data: {fileID: -1677423330635129219, guid: 4c675d33277bc9f4caf4f8bec3f5e92a, type: 3}
  - m_RefCount: 1
    m_Data: {fileID: 839958386199460525, guid: 4c675d33277bc9f4caf4f8bec3f5e92a, type: 3}
  - m_RefCount: 1
    m_Data: {fileID: -2839256271270440252, guid: 4c675d33277bc9f4caf4f8bec3f5e92a, type: 3}
  - m_RefCount: 1
    m_Data: {fileID: 2871771396785785914, guid: 4c675d33277bc9f4caf4f8bec3f5e92a, type: 3}
  - m_RefCount: 1
    m_Data: {fileID: 5637274854359106501, guid: 4c675d33277bc9f4caf4f8bec3f5e92a, type: 3}
  - m_RefCount: 1
    m_Data: {fileID: 7917669515600575366, guid: 4c675d33277bc9f4caf4f8bec3f5e92a, type: 3}
  - m_RefCount: 1
    m_Data: {fileID: 1814284792987351361, guid: 4c675d33277bc9f4caf4f8bec3f5e92a, type: 3}
  - m_RefCount: 1
    m_Data: {fileID: 5166587739276816403, guid: 4c675d33277bc9f4caf4f8bec3f5e92a, type: 3}
  - m_RefCount: 1
    m_Data: {fileID: -8027693803319399551, guid: 4c675d33277bc9f4caf4f8bec3f5e92a, type: 3}
  - m_RefCount: 1
    m_Data: {fileID: -2930097775886668286, guid: 4c675d33277bc9f4caf4f8bec3f5e92a, type: 3}
  - m_RefCount: 1
    m_Data: {fileID: -6712406905492007960, guid: 4c675d33277bc9f4caf4f8bec3f5e92a, type: 3}
  - m_RefCount: 1
    m_Data: {fileID: 5021871924229631901, guid: 4c675d33277bc9f4caf4f8bec3f5e92a, type: 3}
  - m_RefCount: 1
    m_Data: {fileID: -4860715431889412405, guid: 4c675d33277bc9f4caf4f8bec3f5e92a, type: 3}
  - m_RefCount: 1
    m_Data: {fileID: -7039406139549392658, guid: 4c675d33277bc9f4caf4f8bec3f5e92a, type: 3}
  - m_RefCount: 1
    m_Data: {fileID: 8027454750796772210, guid: 4c675d33277bc9f4caf4f8bec3f5e92a, type: 3}
  - m_RefCount: 1
    m_Data: {fileID: 2539713294888942410, guid: 4c675d33277bc9f4caf4f8bec3f5e92a, type: 3}
  - m_RefCount: 1
    m_Data: {fileID: -5554548929012608861, guid: 4c675d33277bc9f4caf4f8bec3f5e92a, type: 3}
  - m_RefCount: 1
    m_Data: {fileID: 7914104276180225754, guid: 4c675d33277bc9f4caf4f8bec3f5e92a, type: 3}
  - m_RefCount: 1
    m_Data: {fileID: 896007516256481213, guid: 4c675d33277bc9f4caf4f8bec3f5e92a, type: 3}
  - m_RefCount: 1
    m_Data: {fileID: 9089221238778137218, guid: 4c675d33277bc9f4caf4f8bec3f5e92a, type: 3}
  - m_RefCount: 1
    m_Data: {fileID: -1380136201898041628, guid: 4c675d33277bc9f4caf4f8bec3f5e92a, type: 3}
  - m_RefCount: 1
    m_Data: {fileID: -3648391696706382748, guid: 4c675d33277bc9f4caf4f8bec3f5e92a, type: 3}
  - m_RefCount: 1
    m_Data: {fileID: -5164151662995178760, guid: 4c675d33277bc9f4caf4f8bec3f5e92a, type: 3}
  - m_RefCount: 1
    m_Data: {fileID: -3288830784796092358, guid: 4c675d33277bc9f4caf4f8bec3f5e92a, type: 3}
  - m_RefCount: 1
    m_Data: {fileID: 6990943355945455120, guid: 4c675d33277bc9f4caf4f8bec3f5e92a, type: 3}
  - m_RefCount: 1
    m_Data: {fileID: 3841043884572524102, guid: 4c675d33277bc9f4caf4f8bec3f5e92a, type: 3}
  - m_RefCount: 1
    m_Data: {fileID: 3027060130312406309, guid: 4c675d33277bc9f4caf4f8bec3f5e92a, type: 3}
  - m_RefCount: 1
    m_Data: {fileID: 8133273646633876805, guid: 4c675d33277bc9f4caf4f8bec3f5e92a, type: 3}
  - m_RefCount: 1
    m_Data: {fileID: 7368865781097236279, guid: 4c675d33277bc9f4caf4f8bec3f5e92a, type: 3}
  - m_RefCount: 1
    m_Data: {fileID: 9098042733379244858, guid: 4c675d33277bc9f4caf4f8bec3f5e92a, type: 3}
  - m_RefCount: 1
    m_Data: {fileID: -2394712674888095538, guid: 4c675d33277bc9f4caf4f8bec3f5e92a, type: 3}
  - m_RefCount: 1
    m_Data: {fileID: -5987698901995635229, guid: 4c675d33277bc9f4caf4f8bec3f5e92a, type: 3}
  - m_RefCount: 1
    m_Data: {fileID: -4623215387766827374, guid: 4c675d33277bc9f4caf4f8bec3f5e92a, type: 3}
  - m_RefCount: 1
    m_Data: {fileID: -130297113323801522, guid: 4c675d33277bc9f4caf4f8bec3f5e92a, type: 3}
  - m_RefCount: 1
    m_Data: {fileID: 797370335108855230, guid: 4c675d33277bc9f4caf4f8bec3f5e92a, type: 3}
  - m_RefCount: 1
    m_Data: {fileID: 3122068346731323485, guid: 4c675d33277bc9f4caf4f8bec3f5e92a, type: 3}
  - m_RefCount: 1
    m_Data: {fileID: -4769485842971838326, guid: 4c675d33277bc9f4caf4f8bec3f5e92a, type: 3}
  - m_RefCount: 1
    m_Data: {fileID: -4603471791419999887, guid: 4c675d33277bc9f4caf4f8bec3f5e92a, type: 3}
  - m_RefCount: 1
    m_Data: {fileID: 2189447281011125460, guid: 4c675d33277bc9f4caf4f8bec3f5e92a, type: 3}
  - m_RefCount: 1
    m_Data: {fileID: 1045752471553015044, guid: 4c675d33277bc9f4caf4f8bec3f5e92a, type: 3}
  - m_RefCount: 1
    m_Data: {fileID: 7713015814394678362, guid: 4c675d33277bc9f4caf4f8bec3f5e92a, type: 3}
  - m_RefCount: 1
    m_Data: {fileID: 3681714445216514161, guid: 4c675d33277bc9f4caf4f8bec3f5e92a, type: 3}
  - m_RefCount: 1
    m_Data: {fileID: 6944492634003656280, guid: 4c675d33277bc9f4caf4f8bec3f5e92a, type: 3}
  - m_RefCount: 1
    m_Data: {fileID: 6204217539015910826, guid: 4c675d33277bc9f4caf4f8bec3f5e92a, type: 3}
  - m_RefCount: 1
    m_Data: {fileID: -4346369138291688192, guid: 4c675d33277bc9f4caf4f8bec3f5e92a, type: 3}
  - m_RefCount: 1
    m_Data: {fileID: 8993729199043415693, guid: 4c675d33277bc9f4caf4f8bec3f5e92a, type: 3}
  - m_RefCount: 1
    m_Data: {fileID: -4544282139681737621, guid: 4c675d33277bc9f4caf4f8bec3f5e92a, type: 3}
  - m_RefCount: 1
    m_Data: {fileID: -747614623339033549, guid: 4c675d33277bc9f4caf4f8bec3f5e92a, type: 3}
  - m_RefCount: 1
    m_Data: {fileID: -7025779941080525170, guid: 4c675d33277bc9f4caf4f8bec3f5e92a, type: 3}
  - m_RefCount: 1
    m_Data: {fileID: 8015806097842273867, guid: 4c675d33277bc9f4caf4f8bec3f5e92a, type: 3}
  - m_RefCount: 1
    m_Data: {fileID: -1605627916068241937, guid: 4c675d33277bc9f4caf4f8bec3f5e92a, type: 3}
  - m_RefCount: 1
    m_Data: {fileID: 520890082745559817, guid: 4c675d33277bc9f4caf4f8bec3f5e92a, type: 3}
  - m_RefCount: 1
    m_Data: {fileID: -3786745807931580506, guid: 4c675d33277bc9f4caf4f8bec3f5e92a, type: 3}
  - m_RefCount: 1
    m_Data: {fileID: 5601522967619445271, guid: 4c675d33277bc9f4caf4f8bec3f5e92a, type: 3}
  - m_RefCount: 1
    m_Data: {fileID: 5376021304805945050, guid: 4c675d33277bc9f4caf4f8bec3f5e92a, type: 3}
  - m_RefCount: 1
    m_Data: {fileID: 3712549390118918736, guid: 4c675d33277bc9f4caf4f8bec3f5e92a, type: 3}
  - m_RefCount: 1
    m_Data: {fileID: -1923500651706793855, guid: 4c675d33277bc9f4caf4f8bec3f5e92a, type: 3}
  - m_RefCount: 1
    m_Data: {fileID: -4855271172863076235, guid: 4c675d33277bc9f4caf4f8bec3f5e92a, type: 3}
  - m_RefCount: 1
    m_Data: {fileID: -4835818052132554034, guid: 4c675d33277bc9f4caf4f8bec3f5e92a, type: 3}
  - m_RefCount: 1
    m_Data: {fileID: 7001752289782255609, guid: 4c675d33277bc9f4caf4f8bec3f5e92a, type: 3}
  - m_RefCount: 1
    m_Data: {fileID: 1487827854387579483, guid: 4c675d33277bc9f4caf4f8bec3f5e92a, type: 3}
  - m_RefCount: 1
    m_Data: {fileID: 6231443143368301939, guid: 4c675d33277bc9f4caf4f8bec3f5e92a, type: 3}
  - m_RefCount: 1
    m_Data: {fileID: 8542714948701458869, guid: 4c675d33277bc9f4caf4f8bec3f5e92a, type: 3}
  - m_RefCount: 1
    m_Data: {fileID: 2345457917086292796, guid: 4c675d33277bc9f4caf4f8bec3f5e92a, type: 3}
  m_TileMatrixArray:
  - m_RefCount: 132
    m_Data:
      e00: 1
      e01: 0
      e02: 0
      e03: 0
      e10: 0
      e11: 1
      e12: 0
      e13: 0
      e20: 0
      e21: 0
      e22: 1
      e23: 0
      e30: 0
      e31: 0
      e32: 0
      e33: 1
  m_TileColorArray:
  - m_RefCount: 132
    m_Data: {r: 1, g: 1, b: 1, a: 1}
  m_TileObjectToInstantiateArray: []
  m_AnimationFrameRate: 1
  m_Color: {r: 1, g: 1, b: 1, a: 1}
  m_Origin: {x: -1, y: -5, z: 0}
  m_Size: {x: 71, y: 7, z: 1}
  m_TileAnchor: {x: 0.5, y: 0.5, z: 0}
  m_TileOrientation: 0
  m_TileOrientationMatrix:
    e00: 1
    e01: 0
    e02: 0
    e03: 0
    e10: 0
    e11: 1
    e12: 0
    e13: 0
    e20: 0
    e21: 0
    e22: 1
    e23: 0
    e30: 0
    e31: 0
    e32: 0
    e33: 1
--- !u!483693784 &5411603594917605876
TilemapRenderer:
  m_ObjectHideFlags: 0
  m_CorrespondingSourceObject: {fileID: 0}
  m_PrefabInstance: {fileID: 0}
  m_PrefabAsset: {fileID: 0}
  m_GameObject: {fileID: 2316908912943083897}
  m_Enabled: 1
  m_CastShadows: 0
  m_ReceiveShadows: 0
  m_DynamicOccludee: 0
  m_MotionVectors: 1
  m_LightProbeUsage: 0
  m_ReflectionProbeUsage: 0
  m_RayTracingMode: 0
  m_RayTraceProcedural: 0
  m_RenderingLayerMask: 1
  m_RendererPriority: 0
  m_Materials:
  - {fileID: 10754, guid: 0000000000000000f000000000000000, type: 0}
  m_StaticBatchInfo:
    firstSubMesh: 0
    subMeshCount: 0
  m_StaticBatchRoot: {fileID: 0}
  m_ProbeAnchor: {fileID: 0}
  m_LightProbeVolumeOverride: {fileID: 0}
  m_ScaleInLightmap: 1
  m_ReceiveGI: 1
  m_PreserveUVs: 0
  m_IgnoreNormalsForChartDetection: 0
  m_ImportantGI: 0
  m_StitchLightmapSeams: 1
  m_SelectedEditorRenderState: 0
  m_MinimumChartSize: 4
  m_AutoUVMaxDistance: 0.5
  m_AutoUVMaxAngle: 89
  m_LightmapParameters: {fileID: 0}
  m_SortingLayerID: 0
  m_SortingLayer: 0
  m_SortingOrder: 0
  m_ChunkSize: {x: 32, y: 32, z: 32}
  m_ChunkCullingBounds: {x: 0, y: 0, z: 0}
  m_MaxChunkCount: 16
  m_MaxFrameAge: 16
  m_SortOrder: 0
  m_Mode: 0
  m_DetectChunkCullingBounds: 0
  m_MaskInteraction: 0
--- !u!1 &5017261946337093346
GameObject:
  m_ObjectHideFlags: 0
  m_CorrespondingSourceObject: {fileID: 0}
  m_PrefabInstance: {fileID: 0}
  m_PrefabAsset: {fileID: 0}
  serializedVersion: 6
  m_Component:
  - component: {fileID: 5131286645162649194}
  - component: {fileID: 2263904694894740138}
  m_Layer: 31
  m_Name: Water
  m_TagString: Untagged
  m_Icon: {fileID: 0}
  m_NavMeshLayer: 0
  m_StaticEditorFlags: 0
  m_IsActive: 1
--- !u!4 &5131286645162649194
Transform:
  m_ObjectHideFlags: 0
  m_CorrespondingSourceObject: {fileID: 0}
  m_PrefabInstance: {fileID: 0}
  m_PrefabAsset: {fileID: 0}
  m_GameObject: {fileID: 5017261946337093346}
  m_LocalRotation: {x: 0, y: 0, z: 0, w: 1}
  m_LocalPosition: {x: 0, y: 0, z: 0}
  m_LocalScale: {x: 1, y: 1, z: 1}
  m_Children:
  - {fileID: 4309459057381199087}
  m_Father: {fileID: 0}
  m_RootOrder: 0
  m_LocalEulerAnglesHint: {x: 0, y: 0, z: 0}
--- !u!156049354 &2263904694894740138
Grid:
  m_ObjectHideFlags: 0
  m_CorrespondingSourceObject: {fileID: 0}
  m_PrefabInstance: {fileID: 0}
  m_PrefabAsset: {fileID: 0}
  m_GameObject: {fileID: 5017261946337093346}
  m_Enabled: 1
  m_CellSize: {x: 1, y: 1, z: 0}
  m_CellGap: {x: 0, y: 0, z: 0}
  m_CellLayout: 0
  m_CellSwizzle: 0
--- !u!114 &8842472964292591086
MonoBehaviour:
  m_ObjectHideFlags: 0
  m_CorrespondingSourceObject: {fileID: 0}
  m_PrefabInstance: {fileID: 0}
  m_PrefabAsset: {fileID: 0}
  m_GameObject: {fileID: 0}
  m_Enabled: 1
  m_EditorHideFlags: 0
  m_Script: {fileID: 12395, guid: 0000000000000000e000000000000000, type: 0}
  m_Name: Palette Settings
  m_EditorClassIdentifier: 
  cellSizing: 0
  m_TransparencySortMode: 0
  m_TransparencySortAxis: {x: 0, y: 0, z: 1}
